
{
  "header": {
    "reportVersion": 1,
    "event": "Allocation failed - JavaScript heap out of memory",
    "trigger": "FatalError",
    "filename": "report.20200619.103136.22445.0.001.json",
    "dumpEventTime": "2020-06-19T10:31:36Z",
    "dumpEventTimeStamp": "1592537496595",
    "processId": 22445,
    "cwd": "/home/singgitbram/SANBERCODE/sanbercodeimrn0620/Tugas 5 - Array",
    "commandLine": [
      "node",
      "array.js"
    ],
    "nodejsVersion": "v12.15.0",
    "glibcVersionRuntime": "2.27",
    "glibcVersionCompiler": "2.17",
    "wordSize": 64,
    "arch": "x64",
    "platform": "linux",
    "componentVersions": {
      "node": "12.15.0",
      "v8": "7.7.299.13-node.16",
      "uv": "1.33.1",
      "zlib": "1.2.11",
      "brotli": "1.0.7",
      "ares": "1.15.0",
      "modules": "72",
      "nghttp2": "1.40.0",
      "napi": "5",
      "llhttp": "2.0.4",
      "http_parser": "2.9.3",
      "openssl": "1.1.1d",
      "cldr": "35.1",
      "icu": "64.2",
      "tz": "2019c",
      "unicode": "12.1"
    },
    "release": {
      "name": "node",
      "lts": "Erbium",
      "headersUrl": "https://nodejs.org/download/release/v12.15.0/node-v12.15.0-headers.tar.gz",
      "sourceUrl": "https://nodejs.org/download/release/v12.15.0/node-v12.15.0.tar.gz"
    },
    "osName": "Linux",
    "osRelease": "5.3.0-59-generic",
    "osVersion": "#53~18.04.1-Ubuntu SMP Thu Jun 4 14:58:26 UTC 2020",
    "osMachine": "x86_64",
    "cpus": [
      {
        "model": "Intel(R) Core(TM) i5-8265U CPU @ 1.60GHz",
        "speed": 3109,
        "user": 80440500,
        "nice": 147100,
        "sys": 25992800,
        "idle": 2479977900,
        "irq": 0
      },
      {
        "model": "Intel(R) Core(TM) i5-8265U CPU @ 1.60GHz",
        "speed": 3117,
        "user": 79366000,
        "nice": 203300,
        "sys": 26735000,
        "idle": 2480829300,
        "irq": 0
      },
      {
        "model": "Intel(R) Core(TM) i5-8265U CPU @ 1.60GHz",
        "speed": 3131,
        "user": 83309800,
        "nice": 140500,
        "sys": 26320000,
        "idle": 2478822600,
        "irq": 0
      },
      {
        "model": "Intel(R) Core(TM) i5-8265U CPU @ 1.60GHz",
        "speed": 3121,
        "user": 83044300,
        "nice": 217200,
        "sys": 26300300,
        "idle": 2477696200,
        "irq": 0
      },
      {
        "model": "Intel(R) Core(TM) i5-8265U CPU @ 1.60GHz",
        "speed": 3130,
        "user": 82639800,
        "nice": 129500,
        "sys": 27274600,
        "idle": 2478100600,
        "irq": 0
      },
      {
        "model": "Intel(R) Core(TM) i5-8265U CPU @ 1.60GHz",
        "speed": 3129,
        "user": 82003900,
        "nice": 257600,
        "sys": 26391700,
        "idle": 2479735800,
        "irq": 0
      },
      {
        "model": "Intel(R) Core(TM) i5-8265U CPU @ 1.60GHz",
        "speed": 3117,
        "user": 78393800,
        "nice": 307000,
        "sys": 25940200,
        "idle": 2480359800,
        "irq": 0
      },
      {
        "model": "Intel(R) Core(TM) i5-8265U CPU @ 1.60GHz",
        "speed": 3132,
        "user": 78894600,
        "nice": 258600,
        "sys": 26272500,
        "idle": 2481380700,
        "irq": 0
      }
    ],
    "networkInterfaces": [
      {
        "name": "lo",
        "internal": true,
        "mac": "00:00:00:00:00:00",
        "address": "127.0.0.1",
        "netmask": "255.0.0.0",
        "family": "IPv4"
      },
      {
        "name": "wlo1",
        "internal": false,
        "mac": "f4:d1:08:b0:bb:6b",
        "address": "192.168.1.9",
        "netmask": "255.255.255.0",
        "family": "IPv4"
      },
      {
        "name": "lo",
        "internal": true,
        "mac": "00:00:00:00:00:00",
        "address": "::1",
        "netmask": "ffff:ffff:ffff:ffff:ffff:ffff:ffff:ffff",
        "family": "IPv6",
        "scopeid": 0
      },
      {
        "name": "wlo1",
        "internal": false,
        "mac": "f4:d1:08:b0:bb:6b",
        "address": "fe80::50ba:b1a5:1006:4754",
        "netmask": "ffff:ffff:ffff:ffff::",
        "family": "IPv6",
        "scopeid": 2
      }
    ],
    "host": "singgitbram-ZenBook-UX433FN-UX433FN"
  },
  "javascriptStack": {
    "message": "No stack.",
    "stack": [
      "Unavailable."
    ]
  },
  "nativeStack": [
    {
      "pc": "0x0000000000b05e75",
      "symbol": "report::TriggerNodeReport(v8::Isolate*, node::Environment*, char const*, char const*, std::string const&, v8::Local<v8::String>) [node]"
    },
    {
      "pc": "0x00000000009dbda3",
      "symbol": "node::OnFatalError(char const*, char const*) [node]"
    },
    {
      "pc": "0x0000000000b3b45e",
      "symbol": "v8::Utils::ReportOOMFailure(v8::internal::Isolate*, char const*, bool) [node]"
    },
    {
      "pc": "0x0000000000b3b7d9",
      "symbol": "v8::internal::V8::FatalProcessOutOfMemory(v8::internal::Isolate*, char const*, bool) [node]"
    },
    {
      "pc": "0x0000000000ce6b75",
      "symbol": " [node]"
    },
    {
      "pc": "0x0000000000cbdfa0",
      "symbol": "v8::internal::Factory::NewUninitializedFixedArray(int, v8::internal::AllocationType) [node]"
    },
    {
      "pc": "0x0000000000e27b81",
      "symbol": " [node]"
    },
    {
      "pc": "0x0000000000e27e1d",
      "symbol": " [node]"
    },
    {
      "pc": "0x0000000000fca53b",
      "symbol": "v8::internal::Runtime_GrowArrayElements(int, unsigned long*, v8::internal::Isolate*) [node]"
    },
    {
      "pc": "0x0000000001376519",
      "symbol": " [node]"
    }
  ],
  "javascriptHeap": {
    "totalMemory": 2731200512,
    "totalCommittedMemory": 2698338680,
    "usedMemory": 2695703024,
    "availableMemory": 16989384,
    "memoryLimit": 2197815296,
    "heapSpaces": {
      "read_only_space": {
        "memorySize": 262144,
        "committedMemory": 32568,
        "capacity": 261872,
        "used": 32296,
        "available": 229576
      },
      "new_space": {
        "memorySize": 33554432,
        "committedMemory": 2030192,
        "capacity": 16759808,
        "used": 0,
        "available": 16759808
      },
      "old_space": {
        "memorySize": 2469888,
        "committedMemory": 1855408,
        "capacity": 1425792,
        "used": 1425792,
        "available": 0
      },
      "code_space": {
        "memorySize": 425984,
        "committedMemory": 176416,
        "capacity": 156480,
        "used": 156480,
        "available": 0
      },
      "map_space": {
        "memorySize": 528384,
        "committedMemory": 284416,
        "capacity": 204640,
        "used": 204640,
        "available": 0
      },
      "large_object_space": {
        "memorySize": 1791397888,
        "committedMemory": 1791397888,
        "capacity": 1791369384,
        "used": 1791369384,
        "available": 0
      },
      "code_large_object_space": {
        "memorySize": 49152,
        "committedMemory": 49152,
        "capacity": 3552,
        "used": 3552,
        "available": 0
      },
      "new_large_object_space": {
        "memorySize": 902512640,
        "committedMemory": 902512640,
        "capacity": 902510880,
        "used": 902510880,
        "available": 0
      }
    }
  },
  "resourceUsage": {
    "userCpuSeconds": 1.46395,
    "kernelCpuSeconds": 1.21322,
    "cpuConsumptionPercent": 89.2388,
    "maxRss": 2711289856,
    "pageFaults": {
      "IORequired": 188,
      "IONotRequired": 663553
    },
    "fsActivity": {
      "reads": 46096,
      "writes": 0
    }
  },
  "uvthreadResourceUsage": {
    "userCpuSeconds": 1.3409,
    "kernelCpuSeconds": 1.20762,
    "cpuConsumptionPercent": 84.9504,
    "fsActivity": {
      "reads": 45768,
      "writes": 0
    }
  },
  "libuv": [
  ],
  "environmentVariables": {
    "CLUTTER_IM_MODULE": "xim",
    "LS_COLORS": "rs=0:di=01;34:ln=01;36:mh=00:pi=40;33:so=01;35:do=01;35:bd=40;33;01:cd=40;33;01:or=40;31;01:mi=00:su=37;41:sg=30;43:ca=30;41:tw=30;42:ow=34;42:st=37;44:ex=01;32:*.tar=01;31:*.tgz=01;31:*.arc=01;31:*.arj=01;31:*.taz=01;31:*.lha=01;31:*.lz4=01;31:*.lzh=01;31:*.lzma=01;31:*.tlz=01;31:*.txz=01;31:*.tzo=01;31:*.t7z=01;31:*.zip=01;31:*.z=01;31:*.Z=01;31:*.dz=01;31:*.gz=01;31:*.lrz=01;31:*.lz=01;31:*.lzo=01;31:*.xz=01;31:*.zst=01;31:*.tzst=01;31:*.bz2=01;31:*.bz=01;31:*.tbz=01;31:*.tbz2=01;31:*.tz=01;31:*.deb=01;31:*.rpm=01;31:*.jar=01;31:*.war=01;31:*.ear=01;31:*.sar=01;31:*.rar=01;31:*.alz=01;31:*.ace=01;31:*.zoo=01;31:*.cpio=01;31:*.7z=01;31:*.rz=01;31:*.cab=01;31:*.wim=01;31:*.swm=01;31:*.dwm=01;31:*.esd=01;31:*.jpg=01;35:*.jpeg=01;35:*.mjpg=01;35:*.mjpeg=01;35:*.gif=01;35:*.bmp=01;35:*.pbm=01;35:*.pgm=01;35:*.ppm=01;35:*.tga=01;35:*.xbm=01;35:*.xpm=01;35:*.tif=01;35:*.tiff=01;35:*.png=01;35:*.svg=01;35:*.svgz=01;35:*.mng=01;35:*.pcx=01;35:*.mov=01;35:*.mpg=01;35:*.mpeg=01;35:*.m2v=01;35:*.mkv=01;35:*.webm=01;35:*.ogm=01;35:*.mp4=01;35:*.m4v=01;35:*.mp4v=01;35:*.vob=01;35:*.qt=01;35:*.nuv=01;35:*.wmv=01;35:*.asf=01;35:*.rm=01;35:*.rmvb=01;35:*.flc=01;35:*.avi=01;35:*.fli=01;35:*.flv=01;35:*.gl=01;35:*.dl=01;35:*.xcf=01;35:*.xwd=01;35:*.yuv=01;35:*.cgm=01;35:*.emf=01;35:*.ogv=01;35:*.ogx=01;35:*.aac=00;36:*.au=00;36:*.flac=00;36:*.m4a=00;36:*.mid=00;36:*.midi=00;36:*.mka=00;36:*.mp3=00;36:*.mpc=00;36:*.ogg=00;36:*.ra=00;36:*.wav=00;36:*.oga=00;36:*.opus=00;36:*.spx=00;36:*.xspf=00;36:",
    "LC_MEASUREMENT": "id_ID.UTF-8",
    "LESSCLOSE": "/usr/bin/lesspipe %s %s",
    "LC_PAPER": "id_ID.UTF-8",
    "LC_MONETARY": "id_ID.UTF-8",
    "XDG_MENU_PREFIX": "gnome-",
    "LANG": "en_US.UTF-8",
    "DISPLAY": ":0",
    "ORIGINAL_XDG_CURRENT_DESKTOP": "ubuntu:GNOME",
    "GNOME_SHELL_SESSION_MODE": "ubuntu",
    "DISABLE_WAYLAND": "1",
    "COLORTERM": "truecolor",
    "USERNAME": "singgitbram",
    "CHROME_DESKTOP": "code-url-handler.desktop",
    "XDG_VTNR": "2",
    "GIO_LAUNCHED_DESKTOP_FILE_PID": "5646",
    "SSH_AUTH_SOCK": "/run/user/1000/keyring/ssh",
    "MANDATORY_PATH": "/usr/share/gconf/ubuntu.mandatory.path",
    "S_COLORS": "auto",
    "APPLICATION_INSIGHTS_NO_DIAGNOSTIC_CHANNEL": "true",
    "LC_NAME": "id_ID.UTF-8",
    "XDG_SESSION_ID": "19",
    "USER": "singgitbram",
    "DESKTOP_SESSION": "ubuntu",
    "QT4_IM_MODULE": "xim",
    "TEXTDOMAINDIR": "/usr/share/locale/",
    "DEFAULTS_PATH": "/usr/share/gconf/ubuntu.default.path",
    "PWD": "/home/singgitbram/SANBERCODE/sanbercodeimrn0620/Tugas 5 - Array",
    "HOME": "/home/singgitbram",
    "VSCODE_GIT_ASKPASS_NODE": "/snap/code/34/usr/share/code/code",
    "TEXTDOMAIN": "im-config",
    "SSH_AGENT_PID": "5300",
    "TERM_PROGRAM": "vscode",
    "TERM_PROGRAM_VERSION": "1.46.0",
    "QT_ACCESSIBILITY": "1",
    "XDG_SESSION_TYPE": "x11",
    "XDG_DATA_DIRS": "/usr/share/ubuntu:/usr/local/share/:/usr/share/:/var/lib/snapd/desktop",
    "GSETTINGS_SCHEMA_DIR": "/snap/code/34/usr/share/glib-2.0/schemas",
    "XDG_SESSION_DESKTOP": "ubuntu",
    "LC_ADDRESS": "id_ID.UTF-8",
    "GJS_DEBUG_OUTPUT": "stderr",
    "LC_NUMERIC": "id_ID.UTF-8",
    "GTK_MODULES": "gail:atk-bridge",
    "VSCODE_GIT_ASKPASS_MAIN": "/snap/code/34/usr/share/code/resources/app/extensions/git/dist/askpass-main.js",
    "WINDOWPATH": "2",
    "TERM": "xterm-256color",
    "SHELL": "/bin/bash",
    "QT_IM_MODULE": "xim",
    "XMODIFIERS": "@im=ibus",
    "IM_CONFIG_PHASE": "2",
    "XDG_CURRENT_DESKTOP": "Unity",
    "GPG_AGENT_INFO": "/run/user/1000/gnupg/S.gpg-agent:0:1",
    "BAMF_DESKTOP_FILE_HINT": "/var/lib/snapd/desktop/applications/code_code.desktop",
    "GIO_LAUNCHED_DESKTOP_FILE": "/var/lib/snapd/desktop/applications/code_code.desktop",
    "SHLVL": "3",
    "XDG_SEAT": "seat0",
    "VSCODE_GIT_IPC_HANDLE": "/run/user/1000/snap.code/vscode-git-059e063b5c.sock",
    "LC_TELEPHONE": "id_ID.UTF-8",
    "GDMSESSION": "ubuntu",
    "GNOME_DESKTOP_SESSION_ID": "this-is-deprecated",
    "LOGNAME": "singgitbram",
    "DBUS_SESSION_BUS_ADDRESS": "unix:path=/run/user/1000/bus",
    "GIT_ASKPASS": "/snap/code/34/usr/share/code/resources/app/extensions/git/dist/askpass.sh",
    "XDG_RUNTIME_DIR": "/run/user/1000/snap.code",
    "XAUTHORITY": "/run/user/1000/gdm/Xauthority",
    "XDG_CONFIG_DIRS": "/etc/xdg/xdg-ubuntu:/etc/xdg",
    "PATH": "/usr/local/sbin:/usr/local/bin:/usr/sbin:/usr/bin:/sbin:/bin:/usr/games:/usr/local/games:/snap/bin",
    "LC_IDENTIFICATION": "id_ID.UTF-8",
    "GJS_DEBUG_TOPICS": "JS ERROR;JS LOG",
    "SESSION_MANAGER": "local/singgitbram-ZenBook-UX433FN-UX433FN:@/tmp/.ICE-unix/5204,unix/singgitbram-ZenBook-UX433FN-UX433FN:/tmp/.ICE-unix/5204",
    "LESSOPEN": "| /usr/bin/lesspipe %s",
    "GTK_IM_MODULE": "ibus",
    "LC_TIME": "id_ID.UTF-8",
    "_": "/usr/local/bin/node"
  },
  "userLimits": {
    "core_file_size_blocks": {
      "soft": 0,
      "hard": "unlimited"
    },
    "data_seg_size_kbytes": {
      "soft": "unlimited",
      "hard": "unlimited"
    },
    "file_size_blocks": {
      "soft": "unlimited",
      "hard": "unlimited"
    },
    "max_locked_memory_bytes": {
      "soft": 16777216,
      "hard": 16777216
    },
    "max_memory_size_kbytes": {
      "soft": "unlimited",
      "hard": "unlimited"
    },
    "open_files": {
      "soft": 1048576,
      "hard": 1048576
    },
    "stack_size_bytes": {
      "soft": 8388608,
      "hard": "unlimited"
    },
    "cpu_time_seconds": {
      "soft": "unlimited",
      "hard": "unlimited"
    },
    "max_user_processes": {
      "soft": 30910,
      "hard": 30910
    },
    "virtual_memory_kbytes": {
      "soft": "unlimited",
      "hard": "unlimited"
    }
  },
  "sharedObjects": [
    "linux-vdso.so.1",
    "/lib/x86_64-linux-gnu/libdl.so.2",
    "/usr/lib/x86_64-linux-gnu/libstdc++.so.6",
    "/lib/x86_64-linux-gnu/libm.so.6",
    "/lib/x86_64-linux-gnu/libgcc_s.so.1",
    "/lib/x86_64-linux-gnu/libpthread.so.0",
    "/lib/x86_64-linux-gnu/libc.so.6",
    "/lib64/ld-linux-x86-64.so.2"
  ]
}